<?xml version="1.0" encoding="UTF-8" standalone="no"?>
<!-- Created with Inkscape (http://www.inkscape.org/) -->

<svg
   width="210mm"
   height="297mm"
   viewBox="0 0 210 297"
   version="1.1"
   id="svg1"
   inkscape:export-filename="open-file4b.png"
   inkscape:export-xdpi="96"
   inkscape:export-ydpi="96"
   inkscape:version="1.3 (0e150ed6c4, 2023-07-21)"
   sodipodi:docname="file-open-full.svg"
   xmlns:inkscape="http://www.inkscape.org/namespaces/inkscape"
   xmlns:sodipodi="http://sodipodi.sourceforge.net/DTD/sodipodi-0.dtd"
   xmlns="http://www.w3.org/2000/svg"
   xmlns:svg="http://www.w3.org/2000/svg">
  <sodipodi:namedview
     id="namedview1"
     pagecolor="#ffffff"
     bordercolor="#000000"
     borderopacity="0.25"
     inkscape:showpageshadow="2"
     inkscape:pageopacity="0.0"
     inkscape:pagecheckerboard="0"
     inkscape:deskcolor="#d1d1d1"
     inkscape:document-units="mm"
     inkscape:zoom="0.76164147"
     inkscape:cx="401.10736"
     inkscape:cy="559.97476"
     inkscape:window-width="1920"
     inkscape:window-height="1123"
     inkscape:window-x="0"
     inkscape:window-y="0"
     inkscape:window-maximized="1"
     inkscape:current-layer="layer1"
     showgrid="false" />
  <defs
     id="defs1">
    <inkscape:path-effect
       effect="bspline"
       id="path-effect15"
       is_visible="true"
       lpeversion="1.3"
       weight="33.333333"
       steps="2"
       helper_size="0"
       apply_no_weight="true"
       apply_with_weight="true"
       only_selected="false"
       uniform="false" />
    <inkscape:path-effect
       effect="bspline"
       id="path-effect14"
       is_visible="true"
       lpeversion="1.3"
       weight="33.333333"
       steps="2"
       helper_size="0"
       apply_no_weight="true"
       apply_with_weight="true"
       only_selected="false"
       uniform="false" />
    <marker
       style="overflow:visible"
       id="marker12"
       refX="0"
       refY="0"
       orient="auto-start-reverse"
       inkscape:stockid="Triangle arrow"
       markerWidth="1"
       markerHeight="1"
       viewBox="0 0 1 1"
       inkscape:isstock="true"
       inkscape:collect="always"
       preserveAspectRatio="xMidYMid">
      <path
         transform="scale(0.5)"
         style="fill:context-stroke;fill-rule:evenodd;stroke:context-stroke;stroke-width:1pt"
         d="M 5.77,0 -2.88,5 V -5 Z"
         id="path12" />
    </marker>
    <inkscape:path-effect
       effect="bspline"
       id="path-effect11"
       is_visible="true"
       lpeversion="1.3"
       weight="33.333333"
       steps="2"
       helper_size="0"
       apply_no_weight="true"
       apply_with_weight="true"
       only_selected="false"
       uniform="false" />
    <marker
       style="overflow:visible"
       id="marker10"
       refX="0"
       refY="0"
       orient="auto-start-reverse"
       inkscape:stockid="Triangle arrow"
       markerWidth="1"
       markerHeight="1"
       viewBox="0 0 1 1"
       inkscape:isstock="true"
       inkscape:collect="always"
       preserveAspectRatio="xMidYMid">
      <path
         transform="scale(0.5)"
         style="fill:context-stroke;fill-rule:evenodd;stroke:context-stroke;stroke-width:1pt"
         d="M 5.77,0 -2.88,5 V -5 Z"
         id="path10" />
    </marker>
    <inkscape:path-effect
       effect="bspline"
       id="path-effect9"
       is_visible="true"
       lpeversion="1.3"
       weight="33.333333"
       steps="2"
       helper_size="0"
       apply_no_weight="true"
       apply_with_weight="true"
       only_selected="false"
       uniform="false" />
    <marker
       style="overflow:visible"
       id="Triangle"
       refX="0"
       refY="0"
       orient="auto-start-reverse"
       inkscape:stockid="Triangle arrow"
       markerWidth="1"
       markerHeight="1"
       viewBox="0 0 1 1"
       inkscape:isstock="true"
       inkscape:collect="always"
       preserveAspectRatio="xMidYMid">
      <path
         transform="scale(0.5)"
         style="fill:context-stroke;fill-rule:evenodd;stroke:context-stroke;stroke-width:1pt"
         d="M 5.77,0 -2.88,5 V -5 Z"
         id="path135" />
    </marker>
    <inkscape:path-effect
       effect="bspline"
       id="path-effect8"
       is_visible="true"
       lpeversion="1.3"
       weight="33.333333"
       steps="2"
       helper_size="0"
       apply_no_weight="true"
       apply_with_weight="true"
       only_selected="false"
       uniform="false" />
    <marker
       style="overflow:visible"
       id="Triangle-0"
       refX="0"
       refY="0"
       orient="auto-start-reverse"
       inkscape:stockid="Triangle arrow"
       markerWidth="1"
       markerHeight="1"
       viewBox="0 0 1 1"
       inkscape:isstock="true"
       inkscape:collect="always"
       preserveAspectRatio="xMidYMid">
      <path
         transform="scale(0.5)"
         style="fill:context-stroke;fill-rule:evenodd;stroke:context-stroke;stroke-width:1pt"
         d="M 5.77,0 -2.88,5 V -5 Z"
         id="path135-5" />
    </marker>
    <inkscape:path-effect
       effect="bspline"
       id="path-effect8-6"
       is_visible="true"
       lpeversion="1.3"
       weight="33.333333"
       steps="2"
       helper_size="0"
       apply_no_weight="true"
       apply_with_weight="true"
       only_selected="false"
       uniform="false" />
    <marker
       style="overflow:visible"
       id="Triangle-0-1"
       refX="0"
       refY="0"
       orient="auto-start-reverse"
       inkscape:stockid="Triangle arrow"
       markerWidth="1"
       markerHeight="1"
       viewBox="0 0 1 1"
       inkscape:isstock="true"
       inkscape:collect="always"
       preserveAspectRatio="xMidYMid">
      <path
         transform="scale(0.5)"
         style="fill:context-stroke;fill-rule:evenodd;stroke:context-stroke;stroke-width:1pt"
         d="M 5.77,0 -2.88,5 V -5 Z"
         id="path135-5-4" />
    </marker>
    <inkscape:path-effect
       effect="bspline"
       id="path-effect8-6-9"
       is_visible="true"
       lpeversion="1.3"
       weight="33.333333"
       steps="2"
       helper_size="0"
       apply_no_weight="true"
       apply_with_weight="true"
       only_selected="false"
       uniform="false" />
    <marker
       style="overflow:visible"
       id="Triangle-0-1-9"
       refX="0"
       refY="0"
       orient="auto-start-reverse"
       inkscape:stockid="Triangle arrow"
       markerWidth="1"
       markerHeight="1"
       viewBox="0 0 1 1"
       inkscape:isstock="true"
       inkscape:collect="always"
       preserveAspectRatio="xMidYMid">
      <path
         transform="scale(0.5)"
         style="fill:context-stroke;fill-rule:evenodd;stroke:context-stroke;stroke-width:1pt"
         d="M 5.77,0 -2.88,5 V -5 Z"
         id="path135-5-4-1" />
    </marker>
    <inkscape:path-effect
       effect="bspline"
       id="path-effect8-6-9-2"
       is_visible="true"
       lpeversion="1.3"
       weight="33.333333"
       steps="2"
       helper_size="0"
       apply_no_weight="true"
       apply_with_weight="true"
       only_selected="false"
       uniform="false" />
  </defs>
  <g
     inkscape:label="Layer 1"
     inkscape:groupmode="layer"
     id="layer1">
    <ellipse
       style="fill:none;fill-opacity:1;stroke:#ffffff;stroke-width:0.636484;stroke-linecap:round;stroke-miterlimit:10;stroke-opacity:1"
       id="path1"
       cx="115.73238"
       cy="101.12533"
       rx="24.589661"
       ry="21.27574" />
    <rect
       style="fill:none;fill-opacity:1;stroke:#ffffff;stroke-width:0.427042;stroke-linecap:round;stroke-miterlimit:10;stroke-opacity:1"
       id="rect3"
       width="49.657909"
       height="24.351929"
       x="22.140007"
       y="87.619133"
       ry="11.343558" />
    <text
       xml:space="preserve"
       style="font-style:normal;font-variant:normal;font-weight:normal;font-stretch:normal;font-size:7.05556px;font-family:'Open Sans';-inkscape-font-specification:'Open Sans, Normal';font-variant-ligatures:normal;font-variant-caps:normal;font-variant-numeric:normal;font-variant-east-asian:normal;fill:#ffffff;fill-opacity:1;stroke:#ffffff;stroke-width:0.4;stroke-linecap:round;stroke-miterlimit:10;stroke-opacity:1"
       x="29.727104"
       y="101.36103"
       id="text3"><tspan
         sodipodi:role="line"
         id="tspan3"
         style="font-style:normal;font-variant:normal;font-weight:normal;font-stretch:normal;font-size:7.05556px;font-family:'Open Sans';-inkscape-font-specification:'Open Sans, Normal';font-variant-ligatures:normal;font-variant-caps:normal;font-variant-numeric:normal;font-variant-east-asian:normal;fill:#ffffff;fill-opacity:1;stroke:#ffffff;stroke-width:0.4;stroke-opacity:1"
         x="29.727104"
         y="101.36103">Application</tspan></text>
    <text
       xml:space="preserve"
       style="font-style:normal;font-variant:normal;font-weight:normal;font-stretch:normal;font-size:7.05556px;font-family:'Open Sans';-inkscape-font-specification:'Open Sans, Normal';font-variant-ligatures:normal;font-variant-caps:normal;font-variant-numeric:normal;font-variant-east-asian:normal;fill:#ffffff;fill-opacity:1;stroke:#ffffff;stroke-width:0.4;stroke-linecap:round;stroke-miterlimit:10;stroke-opacity:1"
       x="32.142258"
       y="213.45007"
       id="text3-3"><tspan
         sodipodi:role="line"
         id="tspan3-5"
         style="font-style:normal;font-variant:normal;font-weight:normal;font-stretch:normal;font-size:7.05556px;font-family:'Open Sans';-inkscape-font-specification:'Open Sans, Normal';font-variant-ligatures:normal;font-variant-caps:normal;font-variant-numeric:normal;font-variant-east-asian:normal;fill:#ffffff;fill-opacity:1;stroke:#ffffff;stroke-width:0.4;stroke-opacity:1"
         x="32.142258"
         y="213.45007">Handler</tspan></text>
    <rect
       style="fill:none;fill-opacity:1;stroke:#ffffff;stroke-width:0.427042;stroke-linecap:round;stroke-miterlimit:10;stroke-opacity:1"
       id="rect3-5"
       width="49.657909"
       height="24.351929"
       x="21.380157"
       y="199.70837"
       ry="11.343558" />
    <text
       xml:space="preserve"
       style="font-style:normal;font-variant:normal;font-weight:normal;font-stretch:normal;font-size:7.05556px;font-family:'Open Sans';-inkscape-font-specification:'Open Sans, Normal';font-variant-ligatures:normal;font-variant-caps:normal;font-variant-numeric:normal;font-variant-east-asian:normal;fill:#ffffff;fill-opacity:1;stroke:#ffffff;stroke-width:0.4;stroke-linecap:round;stroke-miterlimit:10;stroke-opacity:1"
       x="102.7367"
       y="97.000214"
       id="text4"><tspan
         sodipodi:role="line"
         id="tspan4"
         style="font-style:normal;font-variant:normal;font-weight:normal;font-stretch:normal;font-size:7.05556px;font-family:'Open Sans';-inkscape-font-specification:'Open Sans, Normal';font-variant-ligatures:normal;font-variant-caps:normal;font-variant-numeric:normal;font-variant-east-asian:normal;fill:#ffffff;fill-opacity:1;stroke:#ffffff;stroke-width:0.4;stroke-opacity:1"
         x="102.7367"
         y="97.000214">Portal</tspan><tspan
         sodipodi:role="line"
         style="font-style:normal;font-variant:normal;font-weight:normal;font-stretch:normal;font-size:7.05556px;font-family:'Open Sans';-inkscape-font-specification:'Open Sans, Normal';font-variant-ligatures:normal;font-variant-caps:normal;font-variant-numeric:normal;font-variant-east-asian:normal;fill:#ffffff;fill-opacity:1;stroke:#ffffff;stroke-width:0.4;stroke-opacity:1"
         x="102.7367"
         y="105.81966"
         id="tspan8">frontend</tspan><tspan
         sodipodi:role="line"
         style="font-style:normal;font-variant:normal;font-weight:normal;font-stretch:normal;font-size:7.05556px;font-family:'Open Sans';-inkscape-font-specification:'Open Sans, Normal';font-variant-ligatures:normal;font-variant-caps:normal;font-variant-numeric:normal;font-variant-east-asian:normal;fill:#ffffff;fill-opacity:1;stroke:#ffffff;stroke-width:0.4;stroke-opacity:1"
         x="102.7367"
         y="114.63911"
         id="tspan5" /></text>
    <ellipse
       style="fill:none;fill-opacity:1;stroke:#ffffff;stroke-width:0.636484;stroke-linecap:round;stroke-miterlimit:10;stroke-opacity:1"
       id="path1-1"
       cx="167.80116"
       cy="142.49782"
       rx="24.589661"
       ry="21.27574" />
    <text
       xml:space="preserve"
       style="font-style:normal;font-variant:normal;font-weight:normal;font-stretch:normal;font-size:7.05556px;font-family:'Open Sans';-inkscape-font-specification:'Open Sans, Normal';font-variant-ligatures:normal;font-variant-caps:normal;font-variant-numeric:normal;font-variant-east-asian:normal;fill:#ffffff;fill-opacity:1;stroke:#ffffff;stroke-width:0.4;stroke-linecap:round;stroke-miterlimit:10;stroke-opacity:1"
       x="154.80548"
       y="138.37271"
       id="text4-1"><tspan
         sodipodi:role="line"
         id="tspan4-0"
         style="font-style:normal;font-variant:normal;font-weight:normal;font-stretch:normal;font-size:7.05556px;font-family:'Open Sans';-inkscape-font-specification:'Open Sans, Normal';font-variant-ligatures:normal;font-variant-caps:normal;font-variant-numeric:normal;font-variant-east-asian:normal;fill:#ffffff;fill-opacity:1;stroke:#ffffff;stroke-width:0.4;stroke-opacity:1"
         x="154.80548"
         y="138.37271">Portal</tspan><tspan
         sodipodi:role="line"
         style="font-style:normal;font-variant:normal;font-weight:normal;font-stretch:normal;font-size:7.05556px;font-family:'Open Sans';-inkscape-font-specification:'Open Sans, Normal';font-variant-ligatures:normal;font-variant-caps:normal;font-variant-numeric:normal;font-variant-east-asian:normal;fill:#ffffff;fill-opacity:1;stroke:#ffffff;stroke-width:0.4;stroke-opacity:1"
         x="154.80548"
         y="147.19215"
         id="tspan8-3">backend</tspan><tspan
         sodipodi:role="line"
         style="font-style:normal;font-variant:normal;font-weight:normal;font-stretch:normal;font-size:7.05556px;font-family:'Open Sans';-inkscape-font-specification:'Open Sans, Normal';font-variant-ligatures:normal;font-variant-caps:normal;font-variant-numeric:normal;font-variant-east-asian:normal;fill:#ffffff;fill-opacity:1;stroke:#ffffff;stroke-width:0.4;stroke-opacity:1"
         x="154.80548"
         y="156.01161"
         id="tspan5-4" /></text>
    <ellipse
       style="fill:none;fill-opacity:1;stroke:#ffffff;stroke-width:0.636484;stroke-linecap:round;stroke-miterlimit:10;stroke-opacity:1"
       id="path1-1-1"
       cx="114.79338"
       cy="182.63007"
       rx="24.589661"
       ry="21.27574" />
    <text
       xml:space="preserve"
       style="font-style:normal;font-variant:normal;font-weight:normal;font-stretch:normal;font-size:7.05556px;font-family:'Open Sans';-inkscape-font-specification:'Open Sans, Normal';font-variant-ligatures:normal;font-variant-caps:normal;font-variant-numeric:normal;font-variant-east-asian:normal;fill:#ffffff;fill-opacity:1;stroke:#ffffff;stroke-width:0.4;stroke-linecap:round;stroke-miterlimit:10;stroke-opacity:1"
       x="98.02272"
       y="181.72488"
       id="text4-1-9"><tspan
         sodipodi:role="line"
         style="font-style:normal;font-variant:normal;font-weight:normal;font-stretch:normal;font-size:7.05556px;font-family:'Open Sans';-inkscape-font-specification:'Open Sans, Normal';font-variant-ligatures:normal;font-variant-caps:normal;font-variant-numeric:normal;font-variant-east-asian:normal;fill:#ffffff;fill-opacity:1;stroke:#ffffff;stroke-width:0.4;stroke-opacity:1"
         x="98.02272"
         y="181.72488"
         id="tspan8-3-9">Document </tspan><tspan
         sodipodi:role="line"
         style="font-style:normal;font-variant:normal;font-weight:normal;font-stretch:normal;font-size:7.05556px;font-family:'Open Sans';-inkscape-font-specification:'Open Sans, Normal';font-variant-ligatures:normal;font-variant-caps:normal;font-variant-numeric:normal;font-variant-east-asian:normal;fill:#ffffff;fill-opacity:1;stroke:#ffffff;stroke-width:0.4;stroke-opacity:1"
         x="98.02272"
         y="190.54433"
         id="tspan1">store</tspan><tspan
         sodipodi:role="line"
         style="font-style:normal;font-variant:normal;font-weight:normal;font-stretch:normal;font-size:7.05556px;font-family:'Open Sans';-inkscape-font-specification:'Open Sans, Normal';font-variant-ligatures:normal;font-variant-caps:normal;font-variant-numeric:normal;font-variant-east-asian:normal;fill:#ffffff;fill-opacity:1;stroke:#ffffff;stroke-width:0.4;stroke-opacity:1"
         x="98.02272"
         y="199.36378"
         id="tspan5-4-3" /></text>
    <ellipse
       style="fill:none;fill-opacity:1;stroke:#ffffff;stroke-width:0.636484;stroke-linecap:round;stroke-miterlimit:10;stroke-opacity:1"
       id="path1-1-1-1"
       cx="48.890953"
       cy="155.28416"
       rx="24.589661"
       ry="21.27574" />
    <text
       xml:space="preserve"
       style="font-style:normal;font-variant:normal;font-weight:normal;font-stretch:normal;font-size:7.05556px;font-family:'Open Sans';-inkscape-font-specification:'Open Sans, Normal';font-variant-ligatures:normal;font-variant-caps:normal;font-variant-numeric:normal;font-variant-east-asian:normal;fill:#ffffff;fill-opacity:1;stroke:#ffffff;stroke-width:0.4;stroke-linecap:round;stroke-miterlimit:10;stroke-opacity:1"
       x="38.999466"
       y="149.08739"
       id="text4-1-9-3"><tspan
         sodipodi:role="line"
         style="font-style:normal;font-variant:normal;font-weight:normal;font-stretch:normal;font-size:7.05556px;font-family:'Open Sans';-inkscape-font-specification:'Open Sans, Normal';font-variant-ligatures:normal;font-variant-caps:normal;font-variant-numeric:normal;font-variant-east-asian:normal;fill:#ffffff;fill-opacity:1;stroke:#ffffff;stroke-width:0.4;stroke-opacity:1"
         x="38.999466"
         y="149.08739"
         id="tspan8-3-9-2"> </tspan><tspan
         sodipodi:role="line"
         style="font-style:normal;font-variant:normal;font-weight:normal;font-stretch:normal;font-size:7.05556px;font-family:'Open Sans';-inkscape-font-specification:'Open Sans, Normal';font-variant-ligatures:normal;font-variant-caps:normal;font-variant-numeric:normal;font-variant-east-asian:normal;fill:#ffffff;fill-opacity:1;stroke:#ffffff;stroke-width:0.4;stroke-opacity:1"
         x="38.999466"
         y="157.90683"
         id="tspan1-1">D-Bus</tspan><tspan
         sodipodi:role="line"
         style="font-style:normal;font-variant:normal;font-weight:normal;font-stretch:normal;font-size:7.05556px;font-family:'Open Sans';-inkscape-font-specification:'Open Sans, Normal';font-variant-ligatures:normal;font-variant-caps:normal;font-variant-numeric:normal;font-variant-east-asian:normal;fill:#ffffff;fill-opacity:1;stroke:#ffffff;stroke-width:0.4;stroke-opacity:1"
         x="38.999466"
         y="166.72629"
         id="tspan5-4-3-5" /></text>
    <path
       style="fill:#000000;fill-opacity:1;stroke:#ffffff;stroke-width:0.4;stroke-linecap:round;stroke-miterlimit:10;stroke-opacity:1;marker-end:url(#Triangle)"
       d="m 72.014899,100.57276 c 6.199586,-0.0753 12.399177,-0.15069 18.598764,-0.22603"
       id="path8"
       inkscape:path-effect="#path-effect8"
       inkscape:original-d="m 72.014899,100.57276 c 6.199587,-0.0753 12.399177,-0.15068 18.598764,-0.22603" />
    <path
       style="fill:#000000;fill-opacity:1;stroke:#ffffff;stroke-width:0.4;stroke-linecap:round;stroke-miterlimit:10;stroke-opacity:1;marker-end:url(#Triangle-0)"
       d="m 111.89154,104.05423 c -0.0276,12.26599 -0.0552,24.53195 -0.0828,36.79794"
       id="path8-4"
       inkscape:path-effect="#path-effect8-6"
       inkscape:original-d="m 111.89154,104.05423 c -0.0276,12.26599 -0.0552,24.53195 -0.0828,36.79794"
       transform="translate(2.2718622,18.521786)"
       sodipodi:nodetypes="cc" />
    <path
       style="fill:#000000;fill-opacity:1;stroke:#ffffff;stroke-width:0.4;stroke-linecap:round;stroke-miterlimit:10;stroke-opacity:1;marker-end:url(#Triangle-0-1)"
       d="m 111.89154,104.05423 c -9.51648,8.13897 -19.032945,16.27793 -28.549428,24.4169"
       id="path8-4-0"
       inkscape:path-effect="#path-effect8-6-9"
       inkscape:original-d="m 111.89154,104.05423 c -9.51648,8.13897 -19.032942,16.27793 -28.549428,24.4169"
       transform="translate(-13.676389,12.25796)"
       sodipodi:nodetypes="cc" />
    <path
       style="fill:#000000;fill-opacity:1;stroke:#ffffff;stroke-width:0.4;stroke-linecap:round;stroke-miterlimit:10;stroke-opacity:1;marker-end:url(#Triangle-0-1-9)"
       d="m 111.89154,104.05423 c -0.15516,6.94755 -0.31031,13.89508 -0.46547,20.84263"
       id="path8-4-0-0"
       inkscape:path-effect="#path-effect8-6-9-2"
       inkscape:original-d="m 111.89154,104.05423 c -0.15516,6.94755 -0.31031,13.89508 -0.46547,20.84263"
       transform="translate(-63.458932,73.201471)"
       sodipodi:nodetypes="cc" />
    <path
       style="fill:#000000;fill-opacity:1;stroke:#ffffff;stroke-width:0.4;stroke-linecap:round;stroke-miterlimit:10;stroke-opacity:1;marker-end:url(#marker10)"
       d="m 132.54888,116.11514 c 5.07532,3.93381 10.15064,7.86761 15.22596,11.80141"
       id="path9"
       inkscape:path-effect="#path-effect9"
       inkscape:original-d="m 132.54888,116.11514 c 5.07532,3.93381 10.15064,7.86761 15.22596,11.80141"
       sodipodi:nodetypes="cc" />
    <path
       style="fill:#000000;fill-opacity:1;stroke:#ffffff;stroke-width:0.4;stroke-linecap:round;stroke-miterlimit:10;stroke-opacity:1;marker-end:url(#marker12)"
       d="m 151.0137,126.21942 c -4.90319,-3.81506 -9.80638,-7.63012 -14.70956,-11.44518"
       id="path11"
       inkscape:path-effect="#path-effect11"
       inkscape:original-d="m 151.0137,126.21942 c -4.90319,-3.81506 -9.80638,-7.63012 -14.70956,-11.44518"
       sodipodi:nodetypes="cc" />
    <rect
       style="fill:none;fill-opacity:1;stroke:#ffffff;stroke-width:0.727529;stroke-linecap:round;stroke-miterlimit:10;stroke-opacity:1"
       id="rect14-5"
       width="66.807411"
       height="16.821081"
       x="141.86282"
       y="65.459808"
       ry="0" />
    <text
       xml:space="preserve"
       style="font-style:normal;font-variant:normal;font-weight:normal;font-stretch:normal;font-size:7.05556px;font-family:'Open Sans';-inkscape-font-specification:'Open Sans, Normal';font-variant-ligatures:normal;font-variant-caps:normal;font-variant-numeric:normal;font-variant-east-asian:normal;fill:#000000;fill-opacity:1;stroke:#ffffff;stroke-width:0.4;stroke-linecap:round;stroke-miterlimit:10;stroke-opacity:1"
       x="147.36034"
       y="75.439995"
       id="text14"><tspan
         sodipodi:role="line"
         id="tspan14"
         style="fill:#ffffff;fill-opacity:1;stroke-width:0.4"
         x="147.36034"
         y="75.439995">shared-mime-info</tspan></text>
    <rect
       style="fill:none;fill-opacity:1;stroke:#ffffff;stroke-width:0.727529;stroke-linecap:round;stroke-miterlimit:10;stroke-opacity:1"
       id="rect14-5-9"
       width="66.807411"
       height="16.821081"
       x="158.78261"
       y="87.995018"
       ry="0" />
    <text
       xml:space="preserve"
       style="font-style:normal;font-variant:normal;font-weight:normal;font-stretch:normal;font-size:7.05556px;font-family:'Open Sans';-inkscape-font-specification:'Open Sans, Normal';font-variant-ligatures:normal;font-variant-caps:normal;font-variant-numeric:normal;font-variant-east-asian:normal;fill:#000000;fill-opacity:1;stroke:#ffffff;stroke-width:0.4;stroke-linecap:round;stroke-miterlimit:10;stroke-opacity:1"
       x="171.68835"
       y="98.504372"
       id="text14-9"><tspan
         sodipodi:role="line"
         id="tspan14-6"
         style="fill:#ffffff;fill-opacity:1;stroke-width:0.4"
         x="171.68835"
         y="98.504372">desktop files</tspan></text>
    <path
       style="fill:none;fill-opacity:1;stroke:#ffffff;stroke-width:0.4;stroke-linecap:round;stroke-miterlimit:10;stroke-opacity:1"
       d="m 129.47377,84.397735 c 0.53013,-4.932346 1.06027,-9.864693 2.26398,-11.306432 1.20372,-1.441738 3.08094,0.607052 4.79709,1.435836 1.71615,0.828783 3.27112,0.437545 4.82613,0.0463"
       id="path14"
       inkscape:path-effect="#path-effect14"
       inkscape:original-d="m 129.47377,84.397735 c 0.53013,-4.932346 1.06027,-9.864693 1.5904,-14.79704 1.8773,2.048868 3.75453,4.097655 5.63178,6.146483 1.55504,-0.391255 3.11001,-0.782495 4.66502,-1.173742" />
    <path
       style="fill:none;fill-opacity:1;stroke:#ffffff;stroke-width:0.4;stroke-linecap:round;stroke-miterlimit:10;stroke-opacity:1"
       d="m 138.53054,92.971629 c 2.86843,-0.03854 5.73686,-0.07707 7.54669,1.125499 1.80984,1.20257 2.56105,3.646146 4.42482,4.250871 1.86378,0.604725 4.84002,-0.629414 7.8163,-1.863569"
       id="path15"
       inkscape:path-effect="#path-effect15"
       inkscape:original-d="m 138.53054,92.971629 c 2.86843,-0.03854 5.73686,-0.07707 8.60529,-0.115607 0.75124,2.443676 1.50244,4.887254 2.25367,7.330878 2.97633,-1.234178 5.95257,-2.468314 8.92885,-3.70247"
       sodipodi:nodetypes="cccc" />
  </g>
</svg>
